Revel List
rebel han on 2 at 26/10/2019 17:03:59
rebel Luck on Tatuin at 26/10/2019 17:04:26
rebel Luck on Tatuin at 27/10/2019 13:15:12
rebel Luck on Tatuin at 27/10/2019 13:19:34
rebel 2 on 1 at 27/10/2019 17:06:58
rebel true on false at 28/10/2019 1:55:59
rebel cosa on cosa2 at 28/10/2019 2:02:32
rebel true on 0 at 28/10/2019 2:03:01
rebel Hola on hola at 28/10/2019 12:38:13
rebel Hola on Han at 28/10/2019 12:43:46
rebel Han on Tatuin at 28/10/2019 14:48:43
rebel Han on Tatuin at 28/10/2019 22:36:19
